%YAML 1.1
%TAG !u! tag:unity3d.com,2011:
--- !u!1045 &1
EditorBuildSettings:
  m_ObjectHideFlags: 0
  serializedVersion: 2
  m_Scenes:
  - enabled: 0
    path: Assets/Scenes/Teleport.unity
    guid: 433454cc6e061bd4db4fd61da0d1b5a5
  - enabled: 1
    path: Assets/Scenes/ClickMove.unity
    guid: ea56e253daf2f924f980c164bf6bcc7f
  m_configObjects: {}
